{
  "name": "responsive-box",
  "title": "ResponsiveBox",
  "description": "A jQuery plugin that allows you to easily create responsive lightboxes.",
  "version": "0.1.0",
  "homepage": "https://github.com/arnoldsandoval/responsive-box",
  "author": {
    "name": "Arnold Sandoval",
    "email": "arnold@somewhereinsf.com"
  },
  "repository": {
    "type": "git",
    "url": "git://github.com/arnold/new.git"
  },
  "bugs": "https://github.com/arnold/new/issues",
  "licenses": [
    {
      "type": "MIT",
      "url": "https://github.com/arnold/new/blob/master/LICENSE-MIT"
    }
  ],
  "dependencies": {
    "jquery": "*"
  },
  "keywords": []
}